<?xml version="1.0" encoding="utf-8"?>
<!-- Generator: Adobe Illustrator 16.0.0, SVG Export Plug-In . SVG Version: 6.00 Build 0)  -->
<!DOCTYPE svg PUBLIC "-//W3C//DTD SVG 1.1//EN" "http://www.w3.org/Graphics/SVG/1.1/DTD/svg11.dtd">
<svg version="1.1" id="Layer_3" xmlns="http://www.w3.org/2000/svg" xmlns:xlink="http://www.w3.org/1999/xlink" x="0px" y="0px"
	 width="380.634px" height="76.061px" viewBox="0 0 380.634 76.061" enable-background="new 0 0 380.634 76.061"
	 xml:space="preserve">
<g>
	<path fill="#FFFFFF" d="M49.79,56.411c-1.714,0-2.012,1.9-2.012,3.304v9.663c0,1.416,0.286,3.292,2.012,3.292
		c1.751,0,2.024-1.851,2.024-3.292v-9.663C51.814,58.287,51.516,56.411,49.79,56.411z"/>
	<path fill="#FFFFFF" d="M34.491,56.734h-3.279v-3.379h9.747L29.607,0.693H16.198L0,75.647h15.033l2.915-16.032h9.786l3.082,16.032
		h3.676V56.734z M18.988,50.288l3.956-27.816l3.79,27.816H18.988z"/>
	<path fill="#FFFFFF" d="M77.968,0.735H45.655v10.41h17.489l-15.08,41.938c0.523-0.105,1.096-0.162,1.725-0.162
		c4.98,0,6.545,3.49,6.545,7.925v7.402c0,3.36-0.976,6.275-3.751,7.399h25.385v-10.41H58.105l19.863-54.967V0.735z"/>
	<path fill="#FFFFFF" d="M43.256,68.359v-4.343l-1.57-7.282h-2.675v18.913h4.353h2.399h1.208
		C44.231,74.543,43.256,71.706,43.256,68.359z"/>
</g>
<g>
	<path fill="#FFFFFF" d="M106.857,5.537v15.188h8.438v5.062h-8.438v21.938h-6.75V0.475h18.562v5.062H106.857z"/>
	<path fill="#FFFFFF" d="M122.926,47.725h-6.75l10.125-47.25h6.75l10.125,47.25h-6.75l-2.531-11.812h-8.438L122.926,47.725z
		 M129.676,10.6l-3.375,20.25h6.75L129.676,10.6z"/>
	<path fill="#FFFFFF" d="M160.168,47.725h-11.812V0.475h10.125c8.517,0,14.396,3.48,14.396,11.812c0,6.144-2.716,8.754-7.646,10.125
		c5.247,1.74,8.438,4.772,8.438,11.812C173.668,42.557,168.5,47.725,160.168,47.725z M166.918,12.287
		c0-6.671-5.168-6.75-11.812-6.75v15.188h3.375C164.07,20.725,166.918,17.982,166.918,12.287z M158.48,25.787h-3.375v16.875h3.375
		c5.827,0,8.438-2.531,8.438-8.438S164.308,25.787,158.48,25.787z"/>
	<path fill="#FFFFFF" d="M197.647,24.1l7.594,23.625h-6.697l-6.803-21.938h-5.062v21.938h-6.75V0.475h8.438
		c9.624,0,15.188,3.27,15.188,12.656C203.553,18.694,201.576,22.676,197.647,24.1z M188.366,5.537h-1.688v15.188h1.688
		c5.458,0,8.438-2.083,8.438-7.594S193.824,5.537,188.366,5.537z"/>
	<path fill="#FFFFFF" d="M217.83,0.475v47.25h-6.75V0.475H217.83z"/>
	<path fill="#FFFFFF" d="M238.802,48.199c-10.151,0-12.973-7.225-12.973-17.376V17.35C225.83,7.198,228.651,0,238.802,0
		c9.519,0,12.577,6.17,12.577,15.662h-6.75c0-5.748-0.185-10.125-5.827-10.125s-6.223,4.377-6.223,10.125v16.875
		c0,5.168,1.081,10.125,6.223,10.125c5.168,0,5.827-4.957,5.827-10.125V30.85h6.75v1.688
		C251.379,41.924,248.268,48.199,238.802,48.199z"/>
	<path fill="#FFFFFF" d="M261.042,47.725h-6.75l10.125-47.25h6.75l10.125,47.25h-6.75l-2.531-11.812h-8.438L261.042,47.725z
		 M267.792,10.6l-3.375,20.25h6.75L267.792,10.6z"/>
	<path fill="#FFFFFF" d="M303.398,6.486h-8.438v41.238h-6.75V6.486h-8.438V0.475h23.625V6.486z"/>
	<path fill="#FFFFFF" d="M315.354,0.475v47.25h-6.75V0.475H315.354z"/>
	<path fill="#FFFFFF" d="M349.406,15.398v17.139c0,9.492-3.428,15.662-13.025,15.662c-9.677,0-13.025-6.038-13.025-15.662V15.398
		C323.355,5.774,326.704,0,336.38,0C345.978,0,349.406,5.906,349.406,15.398z M330.105,13.711v20.514
		c0,5.062,1.213,8.438,6.275,8.438s6.275-3.375,6.275-8.438V13.711c0-5.062-1.213-8.174-6.275-8.174S330.105,8.648,330.105,13.711z"
		/>
	<path fill="#FFFFFF" d="M363.681,16.295v31.43h-6.75V0.475h5.062l11.812,29.215V0.475h6.75v47.25h-4.799L363.681,16.295z"/>
</g>
<g>
	<path fill="#FFFFFF" d="M100.267,75.766V56.937h2.046l3.632,16.258c1.488-7.111,2.232-9.146,3.632-16.258h2.046v18.829h-1.477V60.7
		l-3.479,15.065h-1.444l-3.479-15.055v15.055H100.267z"/>
	<path fill="#FFFFFF" d="M115.448,75.766h-1.674c1.761-8.73,1.958-10.087,3.72-18.829h2.166l3.72,18.829h-1.685l-0.941-4.901h-4.343
		L115.448,75.766z M116.608,69.759h3.938l-1.98-11.093L116.608,69.759z"/>
	<path fill="#FFFFFF" d="M125.532,75.766V56.937h4.234c3.654,0,4.803,2.495,4.803,5.613v7.658c0,3.041-1.062,5.558-4.803,5.558
		H125.532z M127.195,74.431h2.571c2.451,0,3.14-1.75,3.14-3.851v-8.402c0-2.166-0.689-3.906-3.14-3.906h-2.571V74.431z"/>
	<path fill="#FFFFFF" d="M137.465,75.766V56.937h6.564v1.335h-4.901v7.134h3.501v1.258h-3.501v7.768h4.901v1.335H137.465z"/>
	<path fill="#FFFFFF" d="M149.934,75.766V56.937h1.663v18.829H149.934z"/>
	<path fill="#FFFFFF" d="M154.8,75.766V56.937h1.28l5.962,14.912V56.937h1.412v18.829h-1.248l-5.973-14.595v14.595H154.8z"/>
	<path fill="#FFFFFF" d="M171.983,75.766V58.271h-3.665v-1.335h9.026v1.335h-3.698v17.494H171.983z"/>
	<path fill="#FFFFFF" d="M178.556,75.766V56.937h1.663v8.523h5.798v-8.523h1.663v18.829h-1.663v-9.146h-5.798v9.146H178.556z"/>
	<path fill="#FFFFFF" d="M190.872,75.766V56.937h6.564v1.335h-4.901v7.134h3.501v1.258h-3.501v7.768h4.901v1.335H190.872z"/>
	<path fill="#FFFFFF" d="M203.198,71.138V56.937h1.663v14.584c0,2.068,0.799,3.206,3.206,3.206c2.276,0,3.042-1.16,3.042-3.206
		V56.937h1.652v14.201c0,2.647-0.985,4.923-4.694,4.923C204.204,76.061,203.198,73.785,203.198,71.138z"/>
	<path fill="#FFFFFF" d="M215.086,71.226l1.466-0.427c0.23,1.98,1.127,3.928,3.359,3.928c1.717,0,2.68-0.996,2.68-2.725
		c0-1.598-1.159-2.965-2.527-4.409l-2.943-3.096c-1.105-1.171-1.991-2.353-1.991-3.764c0-2.494,1.827-4.059,4.332-4.059
		c2.483,0,3.982,1.443,4.475,4.08l0.033,0.176l-1.4,0.438l-0.022-0.153c-0.273-1.762-1.29-3.206-3.085-3.206
		c-1.597,0-2.724,0.81-2.724,2.506c0,1.062,0.635,2.013,1.542,2.997l2.769,3.009c1.477,1.619,3.129,3.173,3.129,5.339
		c0,2.779-1.926,4.201-4.453,4.201C216.968,76.061,215.48,73.818,215.086,71.226z"/>
	<path fill="#FFFFFF" d="M227.227,75.766h-1.674c1.762-8.73,1.959-10.087,3.72-18.829h2.167l3.72,18.829h-1.686l-0.94-4.901h-4.344
		L227.227,75.766z M228.387,69.759h3.938l-1.98-11.093L228.387,69.759z"/>
	<path fill="#FFFFFF" d="M241.598,75.766h-1.674c1.762-8.73,1.959-10.087,3.72-18.829h2.167l3.72,18.829h-1.686l-0.94-4.901h-4.344
		L241.598,75.766z M242.758,69.759h3.938l-1.98-11.093L242.758,69.759z"/>
	<path fill="#FFFFFF" d="M251.683,75.766V56.937h1.279l5.963,14.912V56.937h1.411v18.829h-1.247l-5.974-14.595v14.595H251.683z"/>
	<path fill="#FFFFFF" d="M263.528,75.766V56.937h4.233c3.654,0,4.803,2.495,4.803,5.613v7.658c0,3.041-1.061,5.558-4.803,5.558
		H263.528z M265.191,74.431h2.57c2.451,0,3.141-1.75,3.141-3.851v-8.402c0-2.166-0.689-3.906-3.141-3.906h-2.57V74.431z"/>
	<path fill="#FFFFFF" d="M279.114,75.766V56.937h4.605c3.359,0,4.453,2.353,4.453,5.065c0,2.681-0.875,5.395-4.464,5.395h-2.932
		v8.369H279.114z M280.777,66.062l3.129,0.011c1.903,0.011,2.604-1.312,2.604-4.037c0-2.614-0.864-3.764-2.604-3.764h-3.129V66.062z
		"/>
	<path fill="#FFFFFF" d="M290.27,75.766V56.937h5.021c3.271,0,4.037,2.254,4.037,4.869c0,1.926-0.559,3.808-2.626,4.562l2.91,9.397
		h-1.772l-2.746-9.19h-3.161v9.19H290.27z M291.933,65.241h3.348c1.991,0,2.385-1.729,2.385-3.49c0-1.871-0.438-3.479-2.385-3.479
		h-3.348V65.241z"/>
	<path fill="#FFFFFF" d="M301.666,70.307v-7.889c0-3.184,1.148-5.743,4.803-5.743s4.804,2.56,4.804,5.743v7.889
		c0,3.161-1.062,5.754-4.804,5.754C302.727,76.061,301.666,73.468,301.666,70.307z M309.609,70.679v-8.633
		c0-2.231-0.689-4.037-3.141-4.037c-2.45,0-3.14,1.806-3.14,4.037v8.633c0,2.231,0.689,4.048,3.14,4.048
		C308.919,74.727,309.609,72.91,309.609,70.679z"/>
	<path fill="#FFFFFF" d="M314.014,71.138V56.937h1.663v14.584c0,2.068,0.799,3.206,3.205,3.206c2.275,0,3.042-1.16,3.042-3.206
		V56.937h1.651v14.201c0,2.647-0.984,4.923-4.693,4.923C315.021,76.061,314.014,73.785,314.014,71.138z"/>
	<path fill="#FFFFFF" d="M326.615,75.766V56.937h4.233c3.654,0,4.803,2.495,4.803,5.613v7.658c0,3.041-1.061,5.558-4.803,5.558
		H326.615z M328.278,74.431h2.57c2.451,0,3.141-1.75,3.141-3.851v-8.402c0-2.166-0.689-3.906-3.141-3.906h-2.57V74.431z"/>
	<path fill="#FFFFFF" d="M341.904,70.307v-7.889c0-3.184,1.148-5.743,4.803-5.743s4.804,2.56,4.804,5.743v7.889
		c0,3.161-1.062,5.754-4.804,5.754C342.965,76.061,341.904,73.468,341.904,70.307z M349.847,70.679v-8.633
		c0-2.231-0.689-4.037-3.141-4.037c-2.45,0-3.14,1.806-3.14,4.037v8.633c0,2.231,0.689,4.048,3.14,4.048
		C349.158,74.727,349.847,72.91,349.847,70.679z"/>
	<path fill="#FFFFFF" d="M354.406,75.766V56.937h6.564v1.335h-4.901v7.134h3.501v1.258h-3.501v9.103H354.406z"/>
	<path fill="#FFFFFF" d="M365.834,75.766V56.937h1.663v18.829H365.834z"/>
	<path fill="#FFFFFF" d="M372.387,75.766V58.271h-3.665v-1.335h9.025v1.335h-3.697v17.494H372.387z"/>
	<path fill="#FFFFFF" d="M378.621,75.766v-1.958h2.014v1.958H378.621z"/>
</g>
<line fill="#FFFFFF" stroke="#FFFFFF" stroke-miterlimit="10" x1="99.982" y1="52.689" x2="380.482" y2="52.689"/>
</svg>
